<svg width="36" height="36" viewBox="0 0 36 36" fill="none" xmlns="http://www.w3.org/2000/svg">
<path d="M25.9331 6.39453H11.2282C10.0597 6.39453 9.10889 7.34428 9.10889 8.51152V28.6156C9.10889 29.7829 10.0597 30.7326 11.2282 30.7326H25.9403C27.1089 30.7326 28.0597 29.7829 28.0597 28.6156V8.50427C28.0524 7.33703 27.0944 6.39453 25.9331 6.39453ZM26.9202 27.6369V28.4344H26.9129V28.6156C26.9129 29.1521 26.4702 29.5944 25.9331 29.5944H11.2282C10.6911 29.5944 10.2484 29.1521 10.2484 28.6156V27.6369H26.9202ZM26.9202 9.84551V26.4987H10.2484V9.84551H26.9202ZM26.9202 8.51152V8.71452H10.2484V8.51152C10.2484 7.97502 10.6911 7.53277 11.2282 7.53277H25.9403C26.4774 7.53277 26.9202 7.97502 26.9202 8.51152Z" fill="black"/>
<path d="M20.3151 28.043H16.853V29.1812H20.3151V28.043Z" fill="black"/>
<path d="M11.9976 15.6455C12.5202 15.6455 12.9919 15.341 13.2097 14.8698H14.1387V22.6055H21.8831V23.5335C21.4113 23.751 21.1065 24.2222 21.1065 24.7442C21.1065 25.4837 21.7089 26.0854 22.4492 26.0854C23.1895 26.0854 23.7919 25.4837 23.7919 24.7442C23.7919 24.2222 23.4871 23.751 23.0153 23.5335V22.6055H23.9444C24.1621 23.0767 24.6339 23.3812 25.1565 23.3812C25.8968 23.3812 26.4992 22.7795 26.4992 22.04C26.4992 21.3005 25.8968 20.6987 25.1565 20.6987C24.6339 20.6987 24.1621 21.0032 23.9444 21.4745H23.0153V13.7388H15.2782V12.8108C15.75 12.5933 16.0549 12.122 16.0549 11.6C16.0549 10.8605 15.4524 10.2588 14.7121 10.2588C13.9718 10.2588 13.3694 10.8605 13.3694 11.6C13.3694 12.122 13.6742 12.5933 14.146 12.8108V13.7388H13.2169C12.9992 13.2675 12.5274 12.963 12.0049 12.963C11.2645 12.963 10.6621 13.5648 10.6621 14.3043C10.6621 15.0438 11.2645 15.6455 11.9976 15.6455ZM11.7944 14.3043C11.7944 14.1955 11.8887 14.1013 11.9976 14.1013C12.1065 14.1013 12.2008 14.1955 12.2008 14.3043C12.2008 14.413 12.1065 14.5073 11.9976 14.5073C11.8887 14.5073 11.7944 14.413 11.7944 14.3043ZM14.5089 11.6C14.5089 11.484 14.596 11.397 14.7121 11.397C14.821 11.397 14.9153 11.4913 14.9153 11.6C14.9153 11.7088 14.821 11.803 14.7121 11.803C14.6032 11.803 14.5089 11.7088 14.5089 11.6ZM21.8831 14.877V21.4745H15.2782V14.877H21.8831ZM22.6524 24.7442C22.6524 24.8529 22.5581 24.9472 22.4492 24.9472C22.3403 24.9472 22.246 24.8529 22.246 24.7442C22.246 24.6354 22.3403 24.5412 22.4492 24.5412C22.5581 24.5412 22.6524 24.6354 22.6524 24.7442ZM24.9605 22.0327C24.9605 21.982 24.975 21.9385 25.0113 21.9022C25.0476 21.8587 25.1057 21.837 25.1637 21.837C25.2726 21.837 25.3669 21.9312 25.3669 22.04C25.3669 22.1487 25.2726 22.243 25.1637 22.243C25.0549 22.243 24.9605 22.1487 24.9605 22.0327Z" fill="black"/>
<path d="M19.1542 17.603H18.0146V18.7413H19.1542V17.603Z" fill="black"/>
<path d="M20.7001 17.603H19.5605V18.7413H20.7001V17.603Z" fill="black"/>
<path d="M17.6009 17.603H16.4614V18.7413H17.6009V17.603Z" fill="black"/>
<path d="M19.1542 16.0586H18.0146V17.1968H19.1542V16.0586Z" fill="black"/>
<path d="M19.1542 19.1543H18.0146V20.2925H19.1542V19.1543Z" fill="black"/>
</svg>
