<svg width="38" height="38" viewBox="0 0 38 38" fill="none" xmlns="http://www.w3.org/2000/svg">
<path d="M24.8961 1C24.8961 0.917157 24.829 0.85 24.7461 0.85H1C0.917157 0.85 0.85 0.917157 0.85 1V18.917C0.85 18.9998 0.917157 19.067 1 19.067H24.7461C24.829 19.067 24.8961 18.9998 24.8961 18.917V1ZM24.1597 18.235H1.58685V1.68085H24.1597V18.235Z" fill="black" stroke="black" stroke-width="0.3" stroke-linecap="round" stroke-linejoin="round"/>
<path d="M20.653 14.6241C20.653 14.5412 20.5858 14.4741 20.503 14.4741H3.45013V4.23584C3.45013 4.153 3.38298 4.08584 3.30013 4.08584H2.86328C2.78044 4.08584 2.71328 4.153 2.71328 4.23584V15.1555C2.71328 15.2383 2.78044 15.3055 2.86328 15.3055H20.503C20.5858 15.3055 20.653 15.2383 20.653 15.1555V14.6241Z" fill="black" stroke="black" stroke-width="0.3" stroke-linecap="round" stroke-linejoin="round"/>
<path d="M12.8722 9.97693C12.9031 9.97693 12.9332 9.96741 12.9584 9.94967L15.5721 8.11358L19.1699 6.02571C19.234 5.98854 19.2613 5.91021 19.2343 5.84127L19.0467 5.36229C19.0308 5.32154 18.9978 5.28979 18.9565 5.27537C18.9152 5.26095 18.8696 5.26529 18.8318 5.28726L15.2119 7.38819L15.2116 7.3877L15.2009 7.39519L12.7079 9.14666H9.86813C9.8357 9.14666 9.80414 9.15717 9.77819 9.17661L4.10342 13.428C4.04518 13.4717 4.02666 13.5508 4.05949 13.6158L4.28848 14.0688C4.30849 14.1084 4.34499 14.1371 4.38818 14.1472C4.43137 14.1573 4.47682 14.1478 4.51231 14.1212L10.0419 9.97693H12.8722Z" fill="black" stroke="black" stroke-width="0.3" stroke-linecap="round" stroke-linejoin="round"/>
<path d="M30.7918 20.9064C32.1226 20.9064 33.3174 20.1825 34.1744 19.037C35.0315 17.8915 35.5579 16.3167 35.5579 14.5862C35.5579 12.8556 35.0315 11.281 34.1744 10.1356C33.3174 8.99019 32.1225 8.2665 30.7918 8.2665C29.4611 8.2665 28.2662 8.99035 27.4093 10.1358C26.5522 11.2812 26.0258 12.8559 26.0258 14.5862C26.0258 16.3164 26.5521 17.8912 27.4091 19.0368C28.266 20.1824 29.4609 20.9064 30.7918 20.9064ZM30.7918 9.14289C31.8875 9.14289 32.8929 9.73826 33.6295 10.7228C34.3661 11.7073 34.8267 13.0734 34.8267 14.5862C34.8267 16.0989 34.366 17.4652 33.6293 18.4498C32.8926 19.4345 31.8873 20.03 30.7918 20.03C29.6964 20.03 28.691 19.4345 27.9544 18.4498C27.2177 17.4652 26.757 16.0989 26.757 14.5862C26.757 13.0734 27.2176 11.7073 27.9542 10.7228C28.6908 9.73826 29.6961 9.14289 30.7918 9.14289Z" fill="black" stroke="black" stroke-width="0.3" stroke-linecap="round" stroke-linejoin="round"/>
<path d="M37.1505 28.0084V28.0084C37.1503 26.0614 36.558 24.2905 35.5947 23.003C34.6314 21.7154 33.2898 20.9037 31.7971 20.9037H29.7879C28.2953 20.9037 26.9537 21.7154 25.9904 23.003C25.0272 24.2905 24.435 26.0614 24.435 28.0084V36.7119C24.435 36.8209 24.4678 36.9252 24.5281 37.0058C24.5885 37.0864 24.6833 37.15 24.8006 37.15H36.7849C36.9022 37.15 36.997 37.0864 37.0574 37.0058C37.1177 36.9252 37.1505 36.8209 37.1505 36.7119V28.0084ZM25.1658 36.2737V28.0084C25.1658 26.2792 25.6922 24.7168 26.5351 23.5902C27.378 22.4635 28.5301 21.7801 29.7875 21.7801H31.7967C33.0543 21.7801 34.2064 22.4636 35.0492 23.5904C35.8921 24.7171 36.4184 26.2795 36.4184 28.0084V36.2737H25.1658Z" fill="black" stroke="black" stroke-width="0.3" stroke-linecap="round" stroke-linejoin="round"/>
</svg>
